T (K)    F_form (eV)   # classical stat. # magn part

0.000000000000000    2.200502512562814
97.47342986710555    2.1969849246231155
198.37865284611212    2.1929648241206032
295.7470278220369    2.187437185929648
500.76164796105945    2.171356783919598
698.4049165689073    2.143718592964824
802.2341673524418    2.1236180904522612
902.3514786475932    2.0969849246231154
998.8443961970129    2.0663316582914573
1046.679389981265    2.0391959798994974
1094.7770209934688    2.0195979899497485
1195.121951219512    1.9994974874371858
1299.5815313501307    1.9974874371859295
1498.2053122756643    1.9979899497487437
1790.8182025108122    1.9959798994974873
2003.4317931119008    1.9979899497487437