T (K)   F_mig (eV) # classical stat.

0    0.6891238670694865
97.22222222222217    0.6812688821752266
201.3888888888888    0.6740181268882175
298.6111111111111    0.6625377643504532
496.5277777777777    0.6293051359516617
593.7499999999999    0.6117824773413898
697.9166666666666    0.5876132930513596
746.5277777777777    0.576737160120846
795.1388888888888    0.5604229607250756
847.2222222222221    0.5489425981873113
888.888888888889    0.5398791540785499
944.4444444444445    0.5271903323262841
989.5833333333334    0.5120845921450151
1048.6111111111109    0.5030211480362539
1090.2777777777778    0.48912386706948646
1138.8888888888887    0.47885196374622363
1194.4444444444443    0.4667673716012085
1295.1388888888887    0.45709969788519644
1496.5277777777774    0.4474320241691844
1791.6666666666665    0.44320241691842904
2000    0.4450151057401813
