H_mix in Fe-Cr alloy; minimization of atoms positions; ADP potential [S. Starikov, D. Smirnova] 

Cr [x]	H [eV/atom]	a (A)

0.0   0.0   2.8296823228539587
0.009765625   -0.0013409978866567585   2.8299606431096747
0.01953125   -0.0025023082733151014   2.830099803237534
0.029296875   -0.0034328569412229726   2.8302389633653906
0.05859375   -0.005968057632445678   2.830795603876809
0.09765625   -0.008088494491577336   2.8310739241325154
0.185546875   0.002732075309753945   2.8310739241325154
0.2578125   0.03877990188598635   2.830795603876809
0.4330000   0.10700000000000000   2.830600000000000
0.5741000   0.14200000000000000   2.826500000000000
0.6480000   0.15100000000000000   2.826500000000000
0.7400000   0.14790000000000000   2.828000000000000
0.8241000   0.12900000000000000   2.830400000000000
0.9260000   0.06200000000000000   2.832500000000000
1.0   0.0   2.835527048223436


