Energy = -4.122435
Volume = 11.640794794331537
 
 
-0.8120956788791622 1.3252656581424103e-26
-0.7544791493924299 4.4743969127766704e-24
-0.6968626199056975 1.0547837747027262e-21
-0.6392460904189652 1.7367284711395308e-19
-0.5816295609322328 1.9982129045628196e-17
-0.5240130314455005 1.6076064555039566e-15
-0.46639650195876814 9.052195535866825e-14
-0.4087799724720358 3.572279443684573e-12
-0.35116344298530344 9.898790498551193e-11
-0.2935469134985711 1.931270748248575e-09
-0.23593038401183875 2.6632119861739727e-08
-0.1783138545251064 2.6100614352732885e-07
-0.12069732503837405 1.8321089693540899e-06
-0.0630807955516417 9.312980624503806e-06
-0.005464266064909351 3.48245530610209e-05
0.052152263421823 9.800083131470931e-05
0.10976879290855535 0.00021463323215275068
0.1673853223952877 0.00038415665570416726
0.22500185188202004 0.0005992460079359923
0.2826183813687524 0.0008695092053568625
0.34023491085548474 0.001219914609703628
0.3978514403422171 0.001661014701551591
0.45546796982894944 0.0021737310390372495
0.5130844993156818 0.002730178717629733
0.5707010288024141 0.0033299864495397137
0.6283175582891465 0.004008599088915115
0.6859340877758788 0.004793799776253755
0.7435506172626112 0.005665813454045531
0.8011671467493435 0.006581892954047851
0.8587836762360759 0.007533478078148091
0.9164002057228082 0.008560622429320238
0.9740167352095406 0.009708603085291928
1.031633264696273 0.010969505320788858
1.0892497941830053 0.01227826055005156
1.1468663236697376 0.013606186241238433
1.2044828531564702 0.015014300309615019
1.2620993826432023 0.016570908338177825
1.3197159121299344 0.01825986241564
1.377332441616667 0.019996686481237362
1.4349489711033996 0.021748795163307248
1.4925655005901317 0.023594311269408225
1.5501820300768638 0.025616088892165934
1.6077985595635964 0.027786187326787108
1.665415089050329 0.03001064379017958
1.723031618537061 0.03226103484519565
1.7806481480237932 0.03461743317738833
1.8382646775105258 0.03717723529703843
1.8958812069972584 0.0399202779822104
1.9534977364839905 0.04272528903893838
2.011114265970723 0.045557231212856604
2.068730795457455 0.04853497926726072
2.126347324944188 0.051764349085660535
2.18396385443092 0.055196357965509306
2.2415803839176522 0.058700674653648144
2.2991969134043844 0.06226438494917864
2.3568134428911174 0.06603188286547314
2.4144299723778495 0.07010218859341616
2.4720465018645816 0.07440130242765476
2.5296630313513138 0.07880581713134148
2.5872795608380468 0.08332846888103664
2.644896090324779 0.08813037305704093
2.702512619811511 0.09331655180457588
2.760129149298243 0.09878491880398456
2.817745678784976 0.10440093215008374
2.8753622082717083 0.1102454868588123
2.9329787377584404 0.1165221462674052
2.9905952672451726 0.12328859665653905
3.0482117967319056 0.13041913342071015
3.1058283262186377 0.13784018934986572
3.16344485570537 0.14571183185647346
3.221061385192103 0.15426034137594194
3.278677914678835 0.1635198697643359
3.336294444165567 0.1733945994277026
3.393910973652299 0.183941879321681
3.4515275031390313 0.19548281089772582
3.5091440326257644 0.20837944685636733
3.5667605621124965 0.22285860401935853
3.6243770915992286 0.23931606446744652
3.6819936210859616 0.2586482425260755
3.7396101505726937 0.28165489139033933
3.797226680059426 0.3075392955400067
3.854843209546158 0.33320286525854537
3.91245973903289 0.3550689745406921
3.970076268519623 0.37190821707069865
4.027692798006355 0.3851514278015408
4.085309327493087 0.3968259771250261
4.14292585697982 0.4081951055944911
4.2005423864665525 0.419937602337722
4.258158915953285 0.4324996391072416
4.315775445440017 0.4460173104860294
4.373391974926749 0.46038945093687067
4.431008504413482 0.4756886578850527
4.488625033900214 0.49227585976933136
4.546241563386946 0.5104483896617947
4.603858092873679 0.5301811086562993
4.661474622360411 0.5510385145425681
4.7190911518471435 0.5713794018335928
4.776707681333876 0.5866041782970887
4.834324210820608 0.5893605968520553
4.891940740307341 0.5748458139238762
4.949557269794073 0.54669689095506
5.007173799280805 0.5149320964608434
5.064790328767538 0.48779119597441967
5.12240685825427 0.46763805254543184
5.180023387741002 0.45332940916153325
5.237639917227734 0.4432653008221441
5.2952564467144665 0.43620905316094105
5.3528729762011995 0.4313160988697963
5.410489505687932 0.42827398955143
5.468106035174664 0.4270970633786418
5.525722564661397 0.42768684485854486
5.583339094148129 0.42990709334315697
5.640955623634861 0.4339869097991208
5.698572153121593 0.4404832449709015
5.756188682608325 0.45007890193867583
5.813805212095058 0.4636926607414648
5.87142174158179 0.48191791604740536
5.9290382710685225 0.5029618280344741
5.986654800555256 0.5216998315948678
6.044271330041988 0.532818022137631
6.10188785952872 0.5350312029102602
6.159504389015452 0.5310388413223092
6.217120918502184 0.5242734698539371
6.274737447988917 0.5169316666842916
6.332353977475649 0.5099058597821055
6.389970506962381 0.5032929060930875
6.447587036449114 0.49699689771199984
6.5052035659358465 0.4910600902870386
6.562820095422579 0.48546064527917343
6.620436624909311 0.4800707649042562
6.678053154396043 0.4748849648907397
6.735669683882776 0.4699197386941075
6.793286213369508 0.4650803199027302
6.85090274285624 0.4603250229792558
6.908519272342973 0.4556680540347647
6.966135801829705 0.45103177919293413
7.023752331316437 0.4463532817741263
7.0813688608031695 0.44160771978065205
7.138985390289902 0.43669008390522474
7.196601919776635 0.43146211675099017
7.254218449263368 0.4257635682663797
7.311834978750099 0.41937933402905825
7.369451508236832 0.412248059346851
7.427068037723563 0.4046422881066088
7.484684567210296 0.3970895803412993
7.542301096697029 0.3901053092037634
7.59991762618376 0.38392610375168723
7.6575341556704934 0.37853056731224993
7.715150685157225 0.3738166197114385
7.772767214643958 0.3696878650101871
7.830383744130691 0.36606977926594414
7.888000273617422 0.3628760394555319
7.945616803104155 0.35995163529971935
8.003233332590888 0.35703974117972576
8.06084986207762 0.35399934054888865
8.118466391564352 0.3516568886625632
8.176082921051085 0.3528121125275588
8.233699450537816 0.36144257858242096
8.29131598002455 0.37971637691276955
8.34893250951128 0.40657085965322465
8.406549038998014 0.4400125415396963
8.464165568484747 0.4793960866856453
8.521782097971478 0.5251004091725423
8.579398627458211 0.5778659305611868
8.637015156944942 0.6387315359953393
8.694631686431675 0.7069897733034495
8.752248215918408 0.775413454102595
8.80986474540514 0.827513294010996
8.867481274891873 0.8429812815422012
8.925097804378606 0.8109696787324693
8.982714333865337 0.7405816564495025
9.04033086335207 0.6556191601937902
9.097947392838803 0.5771428831543435
9.155563922325534 0.5128515232168351
9.213180451812267 0.4605946245147249
9.270796981298998 0.41591017853397955
9.328413510785731 0.37549650673000257
9.386030040272464 0.3373025231483868
9.443646569759196 0.29983445809423387
9.501263099245929 0.2615875711991978
9.55887962873266 0.22071816130050623
9.616496158219393 0.17551705989162553
9.674112687706126 0.1265008651054082
9.731729217192857 0.07875775776209862
9.78934574667959 0.040354949529751896
9.846962276166323 0.016323541786683018
9.904578805653054 0.00504701774089553
9.962195335139787 0.0011649950150607548
10.01981186462652 0.00019741923841861366
10.077428394113252 2.4268938774801567e-05
10.135044923599985 2.1458270400346315e-06
10.192661453086716 1.3561842917390342e-07
10.250277982573449 6.0984672888400385e-09
10.307894512060182 1.9444209225117287e-10
10.365511041546913 4.383971822644034e-12
10.423127571033646 6.975057598880016e-14
10.480744100520377 7.81830918146671e-16
10.53836063000711 6.165752790265117e-18
10.595977159493843 3.4174177304379053e-20
10.653593688980575 1.3300318740649878e-22
10.711210218467308 3.632087062829154e-25


