Energy   =   -4.3755687
Volume   =   11.329230094797024
a   =   2.8297199705658818
   
   
Q      T1   [THz]         T2   [THz]      T3   [THz]   
0.0   -0.008450893026242827   -0.008450893025405887   -0.008450893025166906
0.007067837100490509   0.2609696821051938   0.26096968210533067   0.38793288728143044
0.014135674200981017   0.5223802875157366   0.5223802875157665   0.778454291246866
0.021203511301471523   0.784206027182572   0.7842060271825931   1.1734511801819718
0.02827134840196203   1.046682864925374   1.046682864925387   1.5742700312439897
0.03533918550245254   1.3099798117521722   1.3099798117521826   1.9812688138270045
0.042407022602943045   1.574201686129557   1.5742016861295802   2.3937192067958457
0.04947485970343356   1.8393695955304394   1.8393695955304505   2.809822828573472
0.05654269680392406   2.1053986073481408   2.105398607348175   3.226838447035104
0.06361053390441457   2.3720776836132695   2.3720776836132775   3.6412961090193536
0.07067837100490508   2.6390556156125236   2.6390556156125258   4.049268463809605
0.07774620810539558   2.9058359020594926   2.9058359020595086   4.446669069042599
0.08481404520588608   3.171782334054871   3.1717823340548854   4.8295495106329565
0.09188188230637659   3.436135552950242   3.436135552950265   5.194370281596133
0.0989497194068671   3.6980392957554806   3.698039295755487   5.538223948088835
0.1060175565073576   3.9565737195852924   3.956573719585297   5.858993213074938
0.11308539360784811   4.210792326585755   4.21079232658576   6.155431436811603
0.12015323070833862   4.459758719901345   4.459758719901352   6.427159412722266
0.1272210678088291   4.702579724892462   4.70257972489247   6.674579943656449
0.13428890490931963   4.938432222204288   4.938432222204292   6.898720783397902
0.14135674200981016   5.166582196844324   5.16658219684434   7.101025930861322
0.14842457911030066   5.386395799469804   5.386395799469823   7.283123541459267
0.15549241621079118   5.597343418807616   5.597343418807626   7.446603847350562
0.1625602533112817   5.798998675127041   5.798998675127044   7.592840532721565
0.1696280904117722   5.9910347151485075   5.991034715148511   7.722882893599251
0.17669592751226273   6.173220149093489   6.173220149093492   7.837434199212468
0.18376376461275326   6.345416444204363   6.345416444204367   7.936916000621697
0.1908316017132438   6.507577690313741   6.507577690313743   8.02160193683435
0.1978994388137343   6.6597525674718545   6.659752567471855   8.091791344189051
0.20496727591422478   6.802087295754271   6.802087295754273   8.147985394691409
0.2120351130147153   6.934827550478436   6.934827550478437   8.191027922365436
0.21910295011520584   7.058316953006736   7.05831695300674   8.222179486405297
0.22617078721569636   7.172989890301215   7.172989890301217   8.243105433285674
0.2332386243161869   7.279357071491904   7.279357071491906   8.255774907509625
0.2403064614166774   7.377983296396634   7.3779832963966365   8.26228550910797
0.24737429851716794   7.469458208166172   7.469458208166175   8.264644620469138
0.25444213561765844   7.55436209885014   7.554362098850142   8.26454989636485
0.26150997271814896   7.633229892123396   7.633229892123399   8.263214750791997
0.2685778098186395   7.706517037195379   7.706517037195383   8.261277870182877
0.27564564691913   7.774571085842837   7.7745710858428385   8.258819283947352
0.28271348401962054   7.8376121717537375   7.8376121717537375   8.255482735391622
0.28978132112011107   7.895724563516865   7.895724563516868   8.25068060072213
0.29684915822060154   7.948860109804496   7.948860109804498   8.243839301104954
0.30391699532109206   7.996852978839571   7.996852978839573   8.234634275564945
0.3109848324215826   8.039443850523229   8.03944385052323   8.223165617869919
0.3180526695220731   8.07631082780374   8.076310827803741   8.210037347414211
0.32512050662256364   8.107103882143415   8.107103882143418   8.196322277814838
0.33218834372305417   8.131479626512101   8.131479626512103   8.183417134497203
0.33925618082354464   8.149133529587516   8.149133529587516   8.172815163641877
0.34632401792403517   8.159827215567612   8.159827215567617   8.165841831907112
0.3533918550245257   8.163409102302833   8.163409102302841   8.163409102302843
0.3533918550245257   8.163409102302833   8.163409102302841   8.163409102302843
0.35951278150336063   8.157251769214739   8.164728244337606   8.16472824433761
0.3656337079821956   8.139009784238485   8.168659014763842   8.168659014763842
0.37175463446103046   8.109353431416924   8.17512097226767   8.175120972267672
0.3778755609398654   8.069335214817984   8.183978666084194   8.183978666084196
0.38399648741870035   8.02029729006675   8.19504022770149   8.19504022770149
0.39011741389753524   7.963750914224922   8.208056617903521   8.208056617903527
0.3962383403763702   7.9012374024969505   8.222722506847676   8.22272250684768
0.4023592668552051   7.8341829517234975   8.238679740647854   8.238679740647855
0.40848019333404006   7.7637619726866   8.255524160405441   8.255524160405443
0.414601119812875   7.690784598982895   8.27281621137298   8.272816211372982
0.4207220462917099   7.615623174885934   8.290095353251367   8.29009535325137
0.42684297277054484   7.538189416830203   8.306897812506485   8.306897812506488
0.4329638992493798   7.457968739312668   8.322776763109575   8.322776763109578
0.43908482572821467   7.374111641062528   8.337323638017182   8.337323638017187
0.4452057522070496   7.2855751661333805   8.350189003829096   8.350189003829096
0.45132667868588455   7.191301456919314   8.361101304419108   8.361101304419108
0.4574476051647195   7.090416168960619   8.36988180915988   8.369881809159885
0.46356853164355444   6.982427350482851   8.376454286394255   8.376454286394258
0.4696894581223893   6.867405088574256   8.380848249737358   8.380848249737362
0.47581038460122427   6.746123233600198   8.383195070808036   8.383195070808041
0.4819313110800592   6.620146255104602   8.383716786531553   8.383716786531556
0.4880522375588941   6.4918464774940166   8.382708014754732   8.382708014754735
0.49417316403772904   6.364339864031222   8.380511984451186   8.380511984451188
0.5002940905165639   6.241333087853693   8.377492236119995   8.377492236120004
0.5064150169953988   6.126882259151444   8.374002000062617   8.37400200006262
0.5125359434742337   6.025075641442122   8.370353561615694   8.370353561615698
0.5186568699530686   5.939668938786377   8.366790027321953   8.366790027321956
0.5247777964319035   5.873719471697406   8.363461784973053   8.363461784973058
0.5308987229107384   5.829278623948761   8.36040959868387   8.360409598683876
0.5370196493895733   5.807202483472578   8.3575557229882   8.357555722988202
0.5431405758684081   5.807123393760914   8.35470371284124   8.354703712841243
0.549261502347243   5.827592260983632   8.35154682851931   8.351546828519318
0.5553824288260779   5.866363218677703   8.34768417638435   8.347684176384353
0.5615033553049128   5.920762246619952   8.342643075402117   8.342643075402119
0.5676242817837477   5.988068970586492   8.33590566434108   8.335905664341084
0.5737452082625826   6.065846981682006   8.326937507064804   8.326937507064807
0.5798661347414175   6.1521764984866625   8.315215923166937   8.315215923166946
0.5859870612202523   6.245766021054816   8.300255949669884   8.300255949669895
0.5921079876990872   6.345940981057779   8.281632186698745   8.281632186698754
0.5982289141779221   6.45252479785027   8.258995244212104   8.258995244212105
0.604349840656757   6.565640856904736   8.232082033309883   8.232082033309887
0.6104707671355919   6.685472786727581   8.200719683270998   8.200719683271004
0.6165916936144268   6.812024506439021   8.164823370722935   8.164823370722942
0.6227126200932617   6.944919908305358   8.124388785538693   8.1243887855387
0.6288335465720966   7.083274255515341   8.079480303335465   8.079480303335473
0.6349544730509314   7.225656313841417   8.030216169080044   8.030216169080049
0.6410753995297663   7.370144383330553   7.976752110214171   7.9767521102141785
0.6471963260086012   7.514464127310212   7.919264788506481   7.919264788506488
0.6533172524874361   7.656184446414163   7.8579363733089425   7.857936373308948
0.659438178966271   7.792941289531494   7.792941289531497   7.792941289531499
0.659438178966271   7.792941289531494   7.792941289531497   7.792941289531499
0.6655591054451059   7.724435884631024   7.724435884631028   7.92265825767339
0.6716800319239408   7.652551401077161   7.652551401077164   8.043735971363347
0.6778009584027757   7.57739027026591   7.57739027026591   8.155187859971141
0.6839218848816105   7.499025398655235   7.4990253986552355   8.256706972741885
0.6900428113604454   7.417501832465946   7.417501832465947   8.348655845564076
0.6961637378392803   7.332839992344036   7.332839992344041   8.431979123057104
0.7022846643181152   7.24503958233127   7.245039582331271   8.508046481414283
0.7084055907969501   7.154083304270339   7.154083304270342   8.578441226260038
0.714526517275785   7.059939642311433   7.059939642311435   8.644717125345846
0.7206474437546199   6.962564203538513   6.9625642035385145   8.708151444565376
0.7267683702334548   6.861899381525947   6.86189938152595   8.769524365400132
0.7328892967122896   6.757872415434036   6.757872415434041   8.828952770975608
0.7390102231911245   6.6503922113957215   6.650392211395724   8.885799439857774
0.7451311496699594   6.53934554045065   6.539345540450655   8.938667892498302
0.7512520761487943   6.424593398579442   6.424593398579444   8.985480598771442
0.7573730026276292   6.3059683885526905   6.305968388552693   9.023626647646521
0.7634939291064641   6.183273950532604   6.183273950532605   9.050156638586094
0.769614855585299   6.056286131312152   6.0562861313121585   9.06199875096061
0.7757357820641338   5.924758355779747   5.924758355779748   9.056170659640195
0.7818567085429687   5.788429374343827   5.788429374343828   9.029966160346532
0.7879776350218036   5.64703423969122   5.647034239691223   8.981101564621069
0.7940985615006385   5.5003178514011175   5.500317851401122   8.907813711035576
0.8002194879794734   5.348050331712389   5.348050331712393   8.808907781910339
0.8063404144583083   5.190043287967666   5.190043287967669   8.683758417521311
0.8124613409371432   5.026165895245936   5.026165895245936   8.532271633405545
0.8185822674159781   4.856359703768879   4.856359703768884   8.354817726479425
0.824703193894813   4.680651136480263   4.6806511364802645   8.152146744881843
0.8308241203736478   4.499160780598025   4.499160780598027   7.925298261539086
0.8369450468524827   4.312108774776727   4.312108774776727   7.675516213572872
0.8430659733313176   4.11981582977525   4.119815829775252   7.404177568807782
0.8491868998101525   3.9226996741866254   3.922699674186631   7.112740750012189
0.8553078262889874   3.721266969040281   3.7212669690402818   6.802716375451783
0.8614287527678223   3.516100970740864   3.5161009707408764   6.475659337921149
0.8675496792466572   3.30784542987496   3.307845429874962   6.1331779703799105
0.873670605725492   3.0971853870746324   3.0971853870746346   5.776953447423238
0.8797915322043269   2.884825663185827   2.8848256631858296   5.408760977004395
0.8859124586831618   2.6714679390759337   2.6714679390759373   5.030483936764374
0.8920333851619967   2.457787382000224   2.4577873820002254   4.644112933559445
0.8981543116408316   2.2444098028180894   2.24440980281809   4.2517236947370245
0.9042752381196665   2.0318903236266674   2.0318903236266914   3.855430508380154
0.9103961645985014   1.8206944996017576   1.8206944996017886   3.4573153296595347
0.9165170910773363   1.6111827712298719   1.6111827712298732   3.0593363497793837
0.9226380175561711   1.4035990204319944   1.4035990204319961   2.6632234563004635
0.928758944035006   1.1980638594055775   1.1980638594055855   2.2703712382739316
0.9348798705138409   0.9945730790634137   0.9945730790634157   1.8817425756393247
0.9410007969926758   0.7930013779660455   0.7930013779660592   1.4977968691730947
0.9471217234715107   0.5931108737333429   0.5931108737333798   1.1184559597492816
0.9532426499503456   0.39456160088074294   0.3945616008807602   0.743116589116195
0.9593635764291805   0.19690071876974066   0.196900718769774   0.37070201633066896
0.9654845029080154   -0.008450893026242827   -0.008450893025405887   -0.008450893025166906
0.9654845029080154   -0.008450893026242827   -0.008450893025405887   -0.008450893025166906
0.9704822184500941   0.14733151771502   0.18441742507771194   0.29572670589443084
0.9754799339921728   0.2951889050594763   0.3691783378956782   0.5926302517618895
0.9804776495342515   0.44328127661052874   0.5539823688912283   0.8914113627289079
0.9854753650763303   0.5918046825540756   0.7389348478414538   1.192881218671967
0.990473080618409   0.740880501739329   0.9241048810821492   1.4976284365881258
0.9954707961604877   0.8905885959043259   1.1095567018635846   1.805996442921088
1.0004685117025665   1.0409668927003957   1.2953519858078677   2.118060206001192
1.005466227244645   1.192007942558599   1.4815472650201396   2.433618086066317
1.0104639427867237   1.3436559442465896   1.668189159541188   2.7521996966237814
1.0154616583288023   1.4958049848820147   1.8553081287674864   3.0730881955640377
1.020459373870881   1.6482986970110611   2.0429111828468334   3.395354403702038
1.0254570894129595   1.800931363231912   2.2309740065711017   3.7178996538534124
1.0304548049550382   1.95345041689856   2.419433000388168   4.0395041082721095
1.0354525204971168   2.1055602360438734   2.608177778828756   4.3588773447074844
1.0404502360391954   2.2569270909669643   2.797044668498908   4.674708227302374
1.045447951581274   2.407185078745681   2.9858117110774214   4.98571139574633
1.0504456671233526   2.5559428580933465   3.174195603184891   5.290668092930661
1.0554433826654313   2.7027909842951314   3.3618509005479535   5.588459492925541
1.0604410982075099   2.847309635678764   3.5483716873770397   5.87809118297545
1.0654388137495885   2.9890765196932083   3.733295773607606   6.158707994461508
1.070436529291667   3.127674747871022   3.916111343085596   6.429598964496335
1.0754342448337457   3.2627004745683026   4.096265844467628   6.690192829837588
1.0804319603758243   3.3937701043384556   4.273176801403119   6.940045084262957
1.085429675917903   3.520526887075779   4.446244125193799   7.178818232794628
1.0904273914599816   3.6426467386183385   4.614863445092979   7.406257403512573
1.0954251070020602   3.7598431472144163   4.778439930190254   7.622163876214118
1.1004228225441388   3.871871052896163   4.936402062207136   7.826369304123962
1.1054205380862174   3.978529616961901   5.088214828997258   8.018713397797987
1.110418253628296   4.079663831842854   5.233391841675275   8.199027586169018
1.1154159691703747   4.175164956783626   5.371505931079952   8.367126671322538
1.1204136847124533   4.2649698009565   5.502197848315551   8.522809782838245
1.125411400254532   4.349058911575104   5.625182775807838   8.665871072482657
1.1304091157966105   4.427453758843958   5.7402544459032905   8.796119647798513
1.1354068313386891   4.500213040619077   5.8472867596938585   8.913407309254623
1.1404045468807678   4.567428255888633   5.946232895574307   9.017661812831811
1.1454022624228464   4.629218716134477   6.037121991158145   9.10892269884662
1.150399977964925   4.685726176041135   6.120053569816357   9.187376261523514
1.1553976935070036   4.73710926898706   6.195189960736107   9.253386016919132
1.1603954090490822   4.783537927867702   6.2627470259155595   9.30751507820692
1.1653931245911608   4.8251879582483905   6.322983556445451   9.350537174927714
1.1703908401332395   4.86223590945501   6.376189732140169   9.383433657308967
1.175388555675318   4.894854361460787   6.422675052459069   9.407374702368774
1.1803862712173967   4.923207713368332   6.462756143220714   9.423684068651385
1.1853839867594753   4.947448525388091   6.496744824515914   9.433788094009813
1.190381702301554   4.967714433171334   6.524936793155188   9.439151125125958
1.1953794178436326   4.984125623816415   6.547601231380286   9.441201091832342
1.2003771333857112   4.996782839178804   6.564971606259932   9.441250326892783
1.2053748489277898   5.005765856066181   6.577237874930966   9.440417776547307
1.2103725644698684   5.011132385523083   6.5845402628593686   9.439559234618608
1.215370280011947   5.012917334852357   6.586964737864697   9.439211990576103

