linear thermal expansion (mEAM-Chiesa potential without SD)

T [K]	alpha_L [10^{-5}/K]

48.28835451013322    0.8143820224719102
121.7946025412158    0.8093258426966292
195.31922713430617    0.8052808988764045
263.4043893730966    0.8019101123595506
361.4739752878994    0.7985393258426967
467.74563337883717    0.7965168539325843
571.3036858132942    0.7951685393258427
688.5400259022014    0.7965168539325843
808.5634778956211    0.8012359550561798
920.5134936469598    0.811685393258427
1007.9430501592634    0.822808988764045
1095.4399873989291    0.8376404494382023
1180.2539465854597    0.8548314606741574
1235.0896076166473    0.8723595505617978


