Cr diffusion by vacancy mechanism (NEB) EAM potential

x	Em (eV)

0	0
0.047619048	0.01254
0.095238095	0.05803
0.142857143	0.12499
0.19047619	0.20685
0.238095238	0.29519
0.285714286	0.38095
0.333333333	0.45046
0.380952381	0.5127
0.428571429	0.55746
0.476190476	0.58859
0.523809524	0.58859
0.571428571	0.55746
0.619047619	0.5127
0.666666667	0.45046
0.714285714	0.38095
0.761904762	0.29519
0.80952381	0.20685
0.857142857	0.12499
0.904761905	0.05803
0.952380952	0.01254
1	0

