0.0013245031689762595    2.882505302968278E-23
0.001326307874100333    2.098162305534262E-23
0.0012409066494789987    3.6577868208914397E-22
0.0011889461811150498    2.332470136161096E-21
0.001138930067676442    2.1544346900318954E-20
0.001101783220539263    6.903676932864019E-20
0.001105607476635514    1.0543589908346879E-19
0.0010888280158985926    1.3029943385750329E-19
0.001061080674615963    5.440416936083318E-19
0.0010443978945106885    1.0826367338740652E-18
0.0010092276291760662    5.8899952225943434E-18
0.0009832205392630786    1.302994338575033E-17
0.0009721130089161026    2.2122162910704503E-17
0.0009722096895477494    3.5622478902624806E-17
0.0009499194328069609    7.088832467204232E-17
0.0009295520464067031    1.8380944176678036E-16
0.0009054033730798151    3.856620421163488E-16
