0.0009748502994011976    7.56247105080484E-9
0.0009820359281437125    1.916406592900767E-9
0.0010323353293413173    4.877559122039418E-10
0.001089820359281437    7.650789825911539E-11
0.0011520958083832335    2.6933779487295428E-11
0.0014251497005988024    8.240575800420359E-14
0.001489820359281437    3.145874255804009E-14
0.0015329341317365268    6.278818487561761E-15
0.001607185628742515    1.882863269890976E-15
0.001681437125748503    6.121352059008407E-16
