0.0012383233532934131    4.0692821791624555E-15
0.0012000000000000001    7.73639636227644E-15
0.0011568862275449102    3.04185834131291E-14
0.0011161676646706587    4.9190291830190484E-14
0.0010778443113772455    1.2919662889789968E-13
